Project 1: Wrangling, Exploration, Visualization
…
Tidying: Reshaping

The datasets were already tidy, so I chose to reshape bad_drivers by grouping together data from two forms of accidents resulting from actual law violations: drivers under the influence of alcohol (perc_alcohol) and drivers who broke the speed limit (perc_speeding). I then reshaped the data to separate out these accidents by speeding and alcohol use.

# Untidy by grouping together accidents from law violations
bad_drivers_long <- bad_drivers %>% pivot_longer(3:4, names_to = "law_violation", 
    values_to = "perc")
bad_drivers_long

## # A tibble: 102 x 8
##    state num_drivers perc_not_distra perc_no_previous insurance_premi losses
##    <chr>       <dbl>            <int>            <int>            <dbl>  <dbl>
##  1 Alab        18.8               96               80             785.   145.
##  2 Alab        18.8               96               80             785.   145.
##  3 Alas        18.1               90               94            1053.   134.
##  4 Alas        18.1               90               94            1053.   134.
##  5 Ariz        18.6               84               96             899.   110.
##  6 Ariz        18.6               84               96             899.   110.
##  7 Arka        22.4               94               95             827.   142.
##  8 Arka        22.4               94               95             827.   142.
##  9 Cali        12                 91               89             878.   166.
## 10 Cali        12                 91               89             878.   166.
## #  with 92 more rows, and 2 more variables: law_violation <chr>, perc <int>

# Retidy by separating out accidents by speeding and alcohol
# use
bad_drivers_long %>% pivot_wider(names_from = "law_violation", 
    values_from = "perc")

## # A tibble: 51 x 8
##    state num_drivers perc_not_distra perc_no_previous insurance_premi losses
##    <chr>       <dbl>            <int>            <int>            <dbl>  <dbl>
##  1 Alab        18.8               96               80             785.   145.
##  2 Alas        18.1               90               94            1053.   134.
##  3 Ariz        18.6               84               96             899.   110.
##  4 Arka        22.4               94               95             827.   142.
##  5 Cali        12                 91               89             878.   166.
##  6 Colo        13.6               79               95             836.   140.
##  7 Conn        10.8               87               82            1069.   167.
##  8 Dela        16.2               87               99            1138.   151.
##  9 Dist         5.9              100              100            1274.   136.
## 10 Flor        17.9               92               94            1160.   144.
## #  with 41 more rows, and 2 more variables: perc_speeding <int>,
## #   perc_alcohol <int>
…
comb_data %>% summarize(mean_num_drivers = mean(num_drivers, 
    na.rm = T), sd_num_drivers = sd(num_drivers, na.rm = T), 
    med_num_drivers = median(num_drivers, na.rm = T), min_num_drivers = min(num_drivers, 
        na.rm = T), max_num_drivers = max(num_drivers, na.rm = T))

## # A tibble: 1 x 5
##   mean_num_drivers sd_num_drivers med_num_drivers min_num_drivers
##              <dbl>          <dbl>           <dbl>           <dbl>
## 1             15.8           4.12            15.6             5.9
## #  with 1 more variable: max_num_drivers <dbl>

comb_data %>% arrange(desc(num_drivers))

## # A tibble: 51 x 19
##    state median_house_inc share_unemp_seas share_pop_metro share_pop_hs
##    <chr>            <int>            <dbl>           <dbl>        <dbl>
##  1 Nort            60730            0.028            0.5         0.901
##  2 Sout            44929            0.057            0.79        0.836
##  3 West            39552            0.073            0.55        0.828
##  4 Arka            44922            0.052            0.69        0.824
##  5 Kent            42786            0.05             0.56        0.817
##  6 Mont            51102            0.041            0.34        0.908
##  7 Loui            42406            0.06             0.81        0.822
##  8 Okla            47199            0.044            0.59        0.856
##  9 Tenn            43716            0.057            0.82        0.831
## 10 Sout            53053            0.035            0.51        0.899
## #  with 41 more rows, and 14 more variables: share_non_citizen <dbl>,
## #   share_white_poverty <dbl>, gini_index <dbl>, share_non_white <dbl>,
## #   share_vote_trump <dbl>, hate_crimes_per_100k_splc <dbl>,
## #   avg_hatecrimes_per_100k_fbi <dbl>, num_drivers <dbl>, perc_speeding <int>,
## #   perc_alcohol <int>, perc_not_distracted <int>, perc_no_previous <int>,
## #   insurance_premiums <dbl>, losses <dbl>
…
## # A tibble: 1 x 19
##   state median_house_inc share_unemp_seas share_pop_metro share_pop_hs
##   <chr>            <int>            <dbl>           <dbl>        <dbl>
## 1 Nort            60730            0.028             0.5        0.901
## #  with 14 more variables: share_non_citizen <dbl>, share_white_poverty <dbl>,
## #   gini_index <dbl>, share_non_white <dbl>, share_vote_trump <dbl>,
## #   hate_crimes_per_100k_splc <dbl>, avg_hatecrimes_per_100k_fbi <dbl>,
## #   num_drivers <dbl>, perc_speeding <int>, perc_alcohol <int>,
## #   perc_not_distracted <int>, perc_no_previous <int>,
## #   insurance_premiums <dbl>, losses <dbl>

comb_data %>% group_by(state) %>% arrange(perc_not_distracted)

## # A tibble: 51 x 19
## # Groups:   state [51]
##    state median_house_inc share_unemp_seas share_pop_metro share_pop_hs
##    <chr>            <int>            <dbl>           <dbl>        <dbl>
##  1 Miss            35521            0.061            0.45        0.804
##  2 Wisc            58080            0.043            0.69        0.898
##  3 New             46686            0.068            0.69        0.828
##  4 Oreg            58875            0.062            0.87        0.891
##  5 Mary            76165            0.051            0.97        0.89 
##  6 Loui            42406            0.06             0.81        0.822
##  7 Kans            53444            0.044            0.64        0.897
##  8 Kent            42786            0.05             0.56        0.817
##  9 Colo            60940            0.04             0.8         0.893
## 10 Wyom            55690            0.04             0.31        0.918
## #  with 41 more rows, and 14 more variables: share_non_citizen <dbl>,
## #   share_white_poverty <dbl>, gini_index <dbl>, share_non_white <dbl>,
## #   share_vote_trump <dbl>, hate_crimes_per_100k_splc <dbl>,
## #   avg_hatecrimes_per_100k_fbi <dbl>, num_drivers <dbl>, perc_speeding <int>,
## #   perc_alcohol <int>, perc_not_distracted <int>, perc_no_previous <int>,
## #   insurance_premiums <dbl>, losses <dbl>

# Create new variable combining two original variables
comb_data <- comb_data %>% mutate(perc_irresponsible = perc_speeding + 
    perc_alcohol)
comb_data %>% arrange(desc(perc_irresponsible))

## # A tibble: 51 x 20
##    state median_house_inc share_unemp_seas share_pop_metro share_pop_hs
##    <chr>            <int>            <dbl>           <dbl>        <dbl>
##  1 Hawa            71223            0.034            0.76        0.904
##  2 Mont            51102            0.041            0.34        0.908
##  3 Conn            70161            0.052            0.94        0.886
##  4 Penn            55173            0.053            0.87        0.879
##  5 Sout            44929            0.057            0.79        0.836
##  6 Texas            53875            0.042            0.92        0.799
##  7 Miss            56630            0.053            0.78        0.868
##  8 Wash            59068            0.052            0.86        0.897
##  9 Wyom            55690            0.04             0.31        0.918
## 10 Rhod            58633            0.054            1           0.847
## #  with 41 more rows, and 15 more variables: share_non_citizen <dbl>,
## #   share_white_poverty <dbl>, gini_index <dbl>, share_non_white <dbl>,
## #   share_vote_trump <dbl>, hate_crimes_per_100k_splc <dbl>,
## #   avg_hatecrimes_per_100k_fbi <dbl>, num_drivers <dbl>, perc_speeding <int>,
## #   perc_alcohol <int>, perc_not_distracted <int>, perc_no_previous <int>,
## #   insurance_premiums <dbl>, losses <dbl>, perc_irresponsible <int>
…
## # A tibble: 1 x 5
##   mean_avg_hatecr sd_avg_hatecrim med_avg_hatecri min_avg_hatecri
##              <dbl>            <dbl>            <dbl>            <dbl>
## 1             2.37             1.71             1.99            0.267
## #  with 1 more variable: max_avg_hatecrimes_per_100k_fbi <dbl>

# Create categorical variable
comb_data <- comb_data %>% mutate(gini_index_rank = case_when(gini_index > 
    0.5 ~ "high", gini_index <= 0.5 & 0.4 <= gini_index ~ "med", 
    gini_index < 0.4 ~ "low"))
comb_data

## # A tibble: 51 x 21
##    state median_house_inc share_unemp_seas share_pop_metro share_pop_hs
##    <chr>            <int>            <dbl>           <dbl>        <dbl>
##  1 Alab            42278            0.06             0.64        0.821
##  2 Alas            67629            0.064            0.63        0.914
##  3 Ariz            49254            0.063            0.9         0.842
##  4 Arka            44922            0.052            0.69        0.824
##  5 Cali            60487            0.059            0.97        0.806
##  6 Colo            60940            0.04             0.8         0.893
##  7 Conn            70161            0.052            0.94        0.886
##  8 Dela            57522            0.049            0.9         0.874
##  9 Dist            68277            0.067            1           0.871
## 10 Flor            46140            0.052            0.96        0.853
## #  with 41 more rows, and 16 more variables: share_non_citizen <dbl>,
## #   share_white_poverty <dbl>, gini_index <dbl>, share_non_white <dbl>,
## #   share_vote_trump <dbl>, hate_crimes_per_100k_splc <dbl>,
## #   avg_hatecrimes_per_100k_fbi <dbl>, num_drivers <dbl>, perc_speeding <int>,
## #   perc_alcohol <int>, perc_not_distracted <int>, perc_no_previous <int>,
## #   insurance_premiums <dbl>, losses <dbl>, perc_irresponsible <int>,
## #   gini_index_rank <chr>
…
## # A tibble: 1 x 1
##   num_a
##   <int>
## 1    37

# Define Percent irresponsible function
perc_irresponsible_conv <- function(perc_irresponsible) {
    perc_irresponsible_conv <- (perc_irresponsible/100)
    return(perc_irresponsible_conv)
}
comb_data %>% mutate(perc_irresponsible_dec = perc_irresponsible_conv(perc_irresponsible))

## # A tibble: 51 x 22
##    state median_house_inc share_unemp_seas share_pop_metro share_pop_hs
##    <chr>            <int>            <dbl>           <dbl>        <dbl>
##  1 Alab            42278            0.06             0.64        0.821
##  2 Alas            67629            0.064            0.63        0.914
##  3 Ariz            49254            0.063            0.9         0.842
##  4 Arka            44922            0.052            0.69        0.824
##  5 Cali            60487            0.059            0.97        0.806
##  6 Colo            60940            0.04             0.8         0.893
##  7 Conn            70161            0.052            0.94        0.886
##  8 Dela            57522            0.049            0.9         0.874
##  9 Dist            68277            0.067            1           0.871
## 10 Flor            46140            0.052            0.96        0.853
## #  with 41 more rows, and 17 more variables: share_non_citizen <dbl>,
## #   share_white_poverty <dbl>, gini_index <dbl>, share_non_white <dbl>,
## #   share_vote_trump <dbl>, hate_crimes_per_100k_splc <dbl>,
## #   avg_hatecrimes_per_100k_fbi <dbl>, num_drivers <dbl>, perc_speeding <int>,
## #   perc_alcohol <int>, perc_not_distracted <int>, perc_no_previous <int>,
## #   insurance_premiums <dbl>, losses <dbl>, perc_irresponsible <int>,
## #   gini_index_rank <chr>, perc_irresponsible_dec <dbl>
…
